<?xml version="1.0" encoding="UTF-8" standalone="no"?>
<svg
   xmlns:dc="http://purl.org/dc/elements/1.1/"
   xmlns:cc="http://creativecommons.org/ns#"
   xmlns:rdf="http://www.w3.org/1999/02/22-rdf-syntax-ns#"
   xmlns:svg="http://www.w3.org/2000/svg"
   xmlns="http://www.w3.org/2000/svg"
   xmlns:sodipodi="http://sodipodi.sourceforge.net/DTD/sodipodi-0.dtd"
   xmlns:inkscape="http://www.inkscape.org/namespaces/inkscape"
   id="Layer_1"
   data-name="Layer 1"
   viewBox="0 0 64.000001 63.999999"
   version="1.1"
   sodipodi:docname="feed-service-miniflux-symbolic.svg"
   width="64"
   height="64"
   inkscape:version="0.92.3 (2405546, 2018-03-11)">
  <metadata
     id="metadata3783">
    <rdf:RDF>
      <cc:Work
         rdf:about="">
        <dc:format>image/svg+xml</dc:format>
        <dc:type
           rdf:resource="http://purl.org/dc/dcmitype/StillImage" />
        <dc:title>icon</dc:title>
      </cc:Work>
    </rdf:RDF>
  </metadata>
  <defs
     id="defs3781" />
  <sodipodi:namedview
     pagecolor="#ffffff"
     bordercolor="#666666"
     borderopacity="1"
     objecttolerance="10"
     gridtolerance="10"
     guidetolerance="10"
     inkscape:pageopacity="0"
     inkscape:pageshadow="2"
     inkscape:window-width="1920"
     inkscape:window-height="1136"
     id="namedview3779"
     showgrid="false"
     inkscape:zoom="8.5783448"
     inkscape:cx="11.341463"
     inkscape:cy="27.50513"
     inkscape:window-x="0"
     inkscape:window-y="27"
     inkscape:window-maximized="1"
     inkscape:current-layer="Layer_1" />
  <title
     id="title3774">icon</title>
  <path
     d="m 20.851537,12.886425 a 14.209193,14.209011 0 0 1 6.74918,-1.632373 q 7.473363,0 9.52127,6.499787 a 20.642285,20.642019 0 0 1 5.575352,-4.610694 q 3.284069,-1.889093 7.322001,-1.889093 5.605019,0 8.013529,3.425 2.408526,3.425013 2.405552,10.28392 v 25.821069 c 0,0.645527 0.09053,1.083298 0.271576,1.317765 0.181043,0.234467 0.572808,0.445191 1.17531,0.614363 L 64,53.419572 V 55 H 51.464745 Q 49.832351,55 49.115581,53.769788 48.398825,52.539577 48.391399,50.08064 V 23.382545 q 0,-3.953306 -0.874064,-5.62128 -0.874079,-1.667986 -2.921986,-1.669466 -3.254374,0 -6.930222,3.85832 a 31.163765,31.163364 0 0 1 0.365058,5.012853 v 25.821069 c 0,0.645527 0.09053,1.083298 0.271576,1.317765 0.181043,0.234467 0.572822,0.445191 1.175323,0.614363 l 2.108747,0.703403 V 55 H 29.047603 Q 27.415221,55 26.696972,53.769788 25.978709,52.539577 25.972776,50.08064 V 23.382545 q 0,-3.953306 -0.872584,-5.62128 -0.872585,-1.667986 -2.923452,-1.669466 -3.195027,0 -6.568139,3.51404 v 31.178202 c 0,0.645527 0.08907,1.098137 0.270084,1.3608 0.181042,0.262663 0.552047,0.483775 1.11596,0.658883 l 2.047908,0.615848 V 55 H 0 V 53.419572 L 2.1087473,52.716169 Q 3.0125056,52.453507 3.2840692,52.101806 C 3.4651248,51.867339 3.555646,51.429568 3.555646,50.784041 V 17.586159 q 0,-0.966067 -0.2715768,-1.317774 -0.2715636,-0.351693 -1.175322,-0.61584 L 0,14.950625 v -1.580426 l 14.46296,-2.635534 h 1.02396 v 6.148094 a 21.151293,21.15102 0 0 1 5.364617,-3.996334 z"
     id="path3776"
     inkscape:connector-curvature="0"
     style="stroke-width:0.14839792;fill:#bebebe;fill-opacity:1" />
</svg>
